$date
  Sun Apr 19 22:43:54 2020
$end
$version
  GHDL v0
$end
$timescale
  1 fs
$end
$scope module standard $end
$upscope $end
$scope module std_logic_1164 $end
$upscope $end
$scope module numeric_std $end
$upscope $end
$scope module sum_2b_tb $end
$var reg 2 ! a_test[1:0] $end
$var reg 2 " b_test[1:0] $end
$var reg 2 # sum_test[1:0] $end
$var reg 1 $ cout_test $end
$scope module sum_2b_unit $end
$var reg 2 % a[1:0] $end
$var reg 2 & b[1:0] $end
$var reg 2 ' sum[1:0] $end
$var reg 1 ( cout $end
$var reg 3 ) a_ext[2:0] $end
$var reg 3 * b_ext[2:0] $end
$var reg 3 + sum_ext[2:0] $end
$upscope $end
$upscope $end
$enddefinitions $end
#0
b00 !
b00 "
b00 #
0$
b00 %
b00 &
b00 '
0(
b000 )
b000 *
b000 +
#100000000
b01 "
b01 #
b01 &
b01 '
b001 *
b001 +
#200000000
b10 "
b10 #
b10 &
b10 '
b010 *
b010 +
#300000000
b11 "
b11 #
b11 &
b11 '
b011 *
b011 +
#400000000
b01 !
b00 "
b01 #
b01 %
b00 &
b01 '
b001 )
b000 *
b001 +
#500000000
b01 "
b10 #
b01 &
b10 '
b001 *
b010 +
#600000000
b10 "
b11 #
b10 &
b11 '
b010 *
b011 +
#700000000
b11 "
b00 #
1$
b11 &
b00 '
1(
b011 *
b100 +
#800000000
b10 !
b00 "
b10 #
0$
b10 %
b00 &
b10 '
0(
b010 )
b000 *
b010 +
#900000000
b01 "
b11 #
b01 &
b11 '
b001 *
b011 +
#1000000000
b10 "
b00 #
1$
b10 &
b00 '
1(
b010 *
b100 +
#1100000000
b11 "
b01 #
b11 &
b01 '
b011 *
b101 +
#1200000000
b11 !
b00 "
b11 #
0$
b11 %
b00 &
b11 '
0(
b011 )
b000 *
b011 +
#1300000000
b01 "
b00 #
1$
b01 &
b00 '
1(
b001 *
b100 +
#1400000000
b10 "
b01 #
b10 &
b01 '
b010 *
b101 +
#1500000000
b11 "
b10 #
b11 &
b10 '
b011 *
b110 +
#1600000000
