/home/federico/lscc/iCEcube2.2017.08/synpbase/bin/m_generic  -prodtype  synplify_pro   -encrypt  -pro  -rundir  /home/federico/Documentos/Firmware_Investigacion/EDU_FPGA/Practica_VHDL/Cap1_Chu/MuxSimple2Can/MuxSimple2Can_Implmnt   -part iCE40HX4K  -package TQ144    -maxfan 10000 -RWCheckOnRam 0 -pipe -fixgatedclocks 1 -fixgeneratedclocks 1 -summaryfile /home/federico/Documentos/Firmware_Investigacion/EDU_FPGA/Practica_VHDL/Cap1_Chu/MuxSimple2Can/MuxSimple2Can_Implmnt/synlog/report/MuxSimple2Can_fpga_mapper.xml  -flow mapping  -multisrs  -oedif  /home/federico/Documentos/Firmware_Investigacion/EDU_FPGA/Practica_VHDL/Cap1_Chu/MuxSimple2Can/MuxSimple2Can_Implmnt/MuxSimple2Can.edf   -autoconstraint  -freq 1.000   /home/federico/Documentos/Firmware_Investigacion/EDU_FPGA/Practica_VHDL/Cap1_Chu/MuxSimple2Can/MuxSimple2Can_Implmnt/synwork/MuxSimple2Can_prem.srd  -sap  /home/federico/Documentos/Firmware_Investigacion/EDU_FPGA/Practica_VHDL/Cap1_Chu/MuxSimple2Can/MuxSimple2Can_Implmnt/MuxSimple2Can.sap  -otap  /home/federico/Documentos/Firmware_Investigacion/EDU_FPGA/Practica_VHDL/Cap1_Chu/MuxSimple2Can/MuxSimple2Can_Implmnt/MuxSimple2Can.tap  -omap  /home/federico/Documentos/Firmware_Investigacion/EDU_FPGA/Practica_VHDL/Cap1_Chu/MuxSimple2Can/MuxSimple2Can_Implmnt/MuxSimple2Can.map  -devicelib  /home/federico/lscc/iCEcube2.2017.08/synpbase/lib/generic/sb_ice40.v  -sap  /home/federico/Documentos/Firmware_Investigacion/EDU_FPGA/Practica_VHDL/Cap1_Chu/MuxSimple2Can/MuxSimple2Can_Implmnt/MuxSimple2Can.sap  -ologparam  /home/federico/Documentos/Firmware_Investigacion/EDU_FPGA/Practica_VHDL/Cap1_Chu/MuxSimple2Can/MuxSimple2Can_Implmnt/syntmp/MuxSimple2Can.plg  -osyn  /home/federico/Documentos/Firmware_Investigacion/EDU_FPGA/Practica_VHDL/Cap1_Chu/MuxSimple2Can/MuxSimple2Can_Implmnt/MuxSimple2Can.srm  -prjdir  /home/federico/Documentos/Firmware_Investigacion/EDU_FPGA/Practica_VHDL/Cap1_Chu/MuxSimple2Can/  -prjname  MuxSimple2Can_syn  -log  /home/federico/Documentos/Firmware_Investigacion/EDU_FPGA/Practica_VHDL/Cap1_Chu/MuxSimple2Can/MuxSimple2Can_Implmnt/synlog/MuxSimple2Can_fpga_mapper.srr 
rc:0 success:1 runtime:1
file:/home/federico/Documentos/Firmware_Investigacion/EDU_FPGA/Practica_VHDL/Cap1_Chu/MuxSimple2Can/MuxSimple2Can_Implmnt/MuxSimple2Can.edf|io:o|time:1584046168|size:5767|exec:0
file:/home/federico/Documentos/Firmware_Investigacion/EDU_FPGA/Practica_VHDL/Cap1_Chu/MuxSimple2Can/MuxSimple2Can_Implmnt/synwork/MuxSimple2Can_prem.srd|io:i|time:1584046168|size:1536|exec:0
file:/home/federico/Documentos/Firmware_Investigacion/EDU_FPGA/Practica_VHDL/Cap1_Chu/MuxSimple2Can/MuxSimple2Can_Implmnt/MuxSimple2Can.sap|io:o|time:1584046168|size:121|exec:0
file:/home/federico/Documentos/Firmware_Investigacion/EDU_FPGA/Practica_VHDL/Cap1_Chu/MuxSimple2Can/MuxSimple2Can_Implmnt/MuxSimple2Can.tap|io:o|time:0|size:0|exec:0
file:/home/federico/Documentos/Firmware_Investigacion/EDU_FPGA/Practica_VHDL/Cap1_Chu/MuxSimple2Can/MuxSimple2Can_Implmnt/MuxSimple2Can.map|io:o|time:1584046169|size:27|exec:0
file:/home/federico/lscc/iCEcube2.2017.08/synpbase/lib/generic/sb_ice40.v|io:i|time:1583952569|size:220434|exec:0
file:/home/federico/Documentos/Firmware_Investigacion/EDU_FPGA/Practica_VHDL/Cap1_Chu/MuxSimple2Can/MuxSimple2Can_Implmnt/MuxSimple2Can.sap|io:o|time:1584046168|size:121|exec:0
file:/home/federico/Documentos/Firmware_Investigacion/EDU_FPGA/Practica_VHDL/Cap1_Chu/MuxSimple2Can/MuxSimple2Can_Implmnt/syntmp/MuxSimple2Can.plg|io:o|time:1584046169|size:230|exec:0
file:/home/federico/Documentos/Firmware_Investigacion/EDU_FPGA/Practica_VHDL/Cap1_Chu/MuxSimple2Can/MuxSimple2Can_Implmnt/MuxSimple2Can.srm|io:o|time:1584046169|size:6916|exec:0
file:/home/federico/Documentos/Firmware_Investigacion/EDU_FPGA/Practica_VHDL/Cap1_Chu/MuxSimple2Can/MuxSimple2Can_Implmnt/synlog/MuxSimple2Can_fpga_mapper.srr|io:o|time:1584046169|size:7354|exec:0
file:/home/federico/lscc/iCEcube2.2017.08/synpbase/linux_a_64/m_generic|io:i|time:1583952571|size:32925640|exec:1
file:/home/federico/lscc/iCEcube2.2017.08/synpbase/bin/m_generic|io:i|time:1584043400|size:347|exec:1
